<?xml version="1.0" encoding="UTF-8" standalone="no"?>
<!-- Created with Inkscape (http://www.inkscape.org/) -->

<svg
   xmlns:dc="http://purl.org/dc/elements/1.1/"
   xmlns:cc="http://creativecommons.org/ns#"
   xmlns:rdf="http://www.w3.org/1999/02/22-rdf-syntax-ns#"
   xmlns:svg="http://www.w3.org/2000/svg"
   xmlns="http://www.w3.org/2000/svg"
   xmlns:xlink="http://www.w3.org/1999/xlink"
   xmlns:sodipodi="http://sodipodi.sourceforge.net/DTD/sodipodi-0.dtd"
   xmlns:inkscape="http://www.inkscape.org/namespaces/inkscape"
   width="512"
   height="512"
   viewBox="0 0 135.46666 135.46667"
   version="1.1"
   id="svg8"
   sodipodi:docname="laboren-logo.svg"
   inkscape:version="0.92+devel unknown"
   inkscape:export-filename="/home/batisteo/LaBoRen-cover-1400.png"
   inkscape:export-xdpi="262.50003"
   inkscape:export-ydpi="262.50003">
  <defs
     id="defs2" />
  <sodipodi:namedview
     id="base"
     pagecolor="#061f16"
     bordercolor="#666666"
     borderopacity="1.0"
     inkscape:pageopacity="1"
     inkscape:pageshadow="2"
     inkscape:zoom="1.2480469"
     inkscape:cx="256"
     inkscape:cy="256"
     inkscape:document-units="px"
     inkscape:current-layer="g4787"
     showgrid="false"
     units="px"
     inkscape:snap-grids="false"
     inkscape:document-rotation="0"
     inkscape:window-width="1600"
     inkscape:window-height="840"
     inkscape:window-x="0"
     inkscape:window-y="27"
     inkscape:window-maximized="1">
    <inkscape:grid
       type="xygrid"
       id="grid4762" />
  </sodipodi:namedview>
  <metadata
     id="metadata5">
    <rdf:RDF>
      <cc:Work
         rdf:about="">
        <dc:format>image/svg+xml</dc:format>
        <dc:type
           rdf:resource="http://purl.org/dc/dcmitype/StillImage" />
        <dc:title></dc:title>
      </cc:Work>
    </rdf:RDF>
  </metadata>
  <g
     inkscape:label="Calque 1"
     inkscape:groupmode="layer"
     id="layer1"
     transform="translate(0,-161.53332)">
    <image
       sodipodi:absref="/home/batisteo/Téléchargements/Telegram Desktop/laboren.png"
       xlink:href="file:///home/batisteo/T%C3%A9l%C3%A9chargements/Telegram%20Desktop/laboren.png"
       style="stroke-width:4.24183035"
       width="25.532089"
       height="25.532089"
       preserveAspectRatio="none"
       id="image4563"
       x="-48.803398"
       y="306.68042" />
    <g
       id="g4787"
       transform="matrix(5.1386265,0,0,5.1386265,0.51148783,-1228.5158)"
       style="stroke-width:0.19460453">
      <circle
         style="color:#000000;clip-rule:nonzero;display:inline;overflow:visible;visibility:visible;opacity:1;isolation:auto;mix-blend-mode:normal;color-interpolation:sRGB;color-interpolation-filters:linearRGB;solid-color:#000000;solid-opacity:1;fill:#3d8720;fill-opacity:1;fill-rule:nonzero;stroke:none;stroke-width:0.16476516;stroke-linecap:butt;stroke-linejoin:round;stroke-miterlimit:4;stroke-dasharray:none;stroke-dashoffset:0;stroke-opacity:1;color-rendering:auto;image-rendering:auto;shape-rendering:auto;text-rendering:auto;enable-background:accumulate"
         id="circle4684"
         cx="13.081676"
         cy="283.69107"
         r="13.181213" />
      <path
         sodipodi:nodetypes="ccccccccccccccccccccccc"
         inkscape:connector-curvature="0"
         id="path4678"
         d="m 13.659166,296.85155 c 0.118268,-0.003 0.236497,-0.007 0.354652,-0.0125 0.438507,-0.0311 0.875184,-0.0841 1.308395,-0.15877 0.433027,-0.0745 0.862056,-0.17069 1.285479,-0.28809 0.423525,-0.11765 0.8409,-0.25641 1.25056,-0.41576 0.409565,-0.15917 0.810914,-0.33872 1.202544,-0.53798 0.391536,-0.19943 0.772854,-0.41832 1.142527,-0.65583 0.369929,-0.23732 0.727756,-0.49299 1.072142,-0.76605 0.34421,-0.27323 0.67454,-0.5635 0.989753,-0.86972 0.315248,-0.3062 0.614986,-0.62797 0.89809,-0.96411 0.283028,-0.33606 0.549077,-0.68605 0.797149,-1.04868 0.24811,-0.36276 0.477921,-0.73771 0.688572,-1.12343 0.210818,-0.38576 0.402206,-0.78183 0.573446,-1.18672 0.171122,-0.4047 0.321901,-0.81771 0.451772,-1.23747 0.103408,-0.34539 0.192601,-0.69488 0.267354,-1.04759 l -10.781814,-10.79944 -3.97064,11.15573 -2.5551347,-2.54204 c -0.3391744,1.71785 0.4758867,2.58071 0.7170278,3.8687 l 3.6932129,3.71814 v 0.84789 l -3.2333398,0.20679 z"
         style="color:#000000;clip-rule:nonzero;display:inline;overflow:visible;visibility:visible;opacity:1;isolation:auto;mix-blend-mode:normal;color-interpolation:sRGB;color-interpolation-filters:linearRGB;solid-color:#000000;solid-opacity:1;fill:#115716;fill-opacity:1;fill-rule:nonzero;stroke:none;stroke-width:0.16476518;stroke-linecap:butt;stroke-linejoin:round;stroke-miterlimit:4;stroke-dasharray:none;stroke-dashoffset:0;stroke-opacity:1;color-rendering:auto;image-rendering:auto;shape-rendering:auto;text-rendering:auto;enable-background:accumulate" />
      <path
         sodipodi:nodetypes="csccscc"
         inkscape:connector-curvature="0"
         id="path4638"
         d="m 10.048516,277.90728 c 0,-1.66529 1.349979,-3.01527 3.015262,-3.01527 1.665283,0 3.015263,1.34998 3.015263,3.01527 v 6.64445 c 0,1.66528 -1.34998,3.01526 -3.015263,3.01526 -1.665283,0 -3.015262,-1.34998 -3.015262,-3.01526 z"
         style="color:#000000;clip-rule:nonzero;display:inline;overflow:visible;visibility:visible;opacity:1;isolation:auto;mix-blend-mode:normal;color-interpolation:sRGB;color-interpolation-filters:linearRGB;solid-color:#000000;solid-opacity:1;fill:#6b9e8d;fill-opacity:1;fill-rule:nonzero;stroke:none;stroke-width:0.01544673;stroke-linecap:round;stroke-linejoin:round;stroke-miterlimit:4;stroke-dasharray:none;stroke-dashoffset:0;stroke-opacity:1;color-rendering:auto;image-rendering:auto;shape-rendering:auto;text-rendering:auto;enable-background:accumulate" />
      <path
         style="color:#000000;clip-rule:nonzero;display:inline;overflow:visible;visibility:visible;opacity:1;isolation:auto;mix-blend-mode:normal;color-interpolation:sRGB;color-interpolation-filters:linearRGB;solid-color:#000000;solid-opacity:1;fill:#2c8556;fill-opacity:1;fill-rule:nonzero;stroke:none;stroke-width:0.01544673;stroke-linecap:round;stroke-linejoin:round;stroke-miterlimit:4;stroke-dasharray:none;stroke-dashoffset:0;stroke-opacity:1;color-rendering:auto;image-rendering:auto;shape-rendering:auto;text-rendering:auto;enable-background:accumulate"
         d="m 13.063778,274.89201 c 1.665283,0 3.015263,1.34998 3.015263,3.01527 v 6.64445 c 0,1.66528 -1.34998,3.01526 -3.015263,3.01526 v 0 z"
         id="path4642"
         inkscape:connector-curvature="0"
         sodipodi:nodetypes="ccccccc" />
      <path
         id="path4648"
         d="m 7.7119157,284.35304 c 0,1.91129 1.0215839,3.67829 2.6768083,4.63394 0.721048,0.4163 1.515219,0.6508 2.318881,0.70441 v 2.51966 H 9.810913 v 0.78351 h 6.576895 v -0.78351 h -2.896693 v -2.52621 c 0.779779,-0.0623 1.5489,-0.29363 2.249042,-0.69786 1.655224,-0.95565 2.674626,-2.72265 2.674626,-4.63394 h -0.921551 c 0,1.58342 -0.84394,3.044 -2.215214,3.83571 -1.371274,0.7917 -3.058064,0.7917 -4.429338,0 -1.3712732,-0.79171 -2.2146678,-2.25229 -2.2146678,-3.83571 z"
         style="color:#000000;font-style:normal;font-variant:normal;font-weight:normal;font-stretch:normal;font-size:medium;line-height:normal;font-family:sans-serif;font-variant-ligatures:normal;font-variant-position:normal;font-variant-caps:normal;font-variant-numeric:normal;font-variant-alternates:normal;font-feature-settings:normal;text-indent:0;text-align:start;text-decoration:none;text-decoration-line:none;text-decoration-style:solid;text-decoration-color:#000000;letter-spacing:normal;word-spacing:normal;text-transform:none;writing-mode:lr-tb;direction:ltr;text-orientation:mixed;dominant-baseline:auto;baseline-shift:baseline;text-anchor:start;white-space:normal;shape-padding:0;clip-rule:nonzero;display:inline;overflow:visible;visibility:visible;opacity:1;isolation:auto;mix-blend-mode:normal;color-interpolation:sRGB;color-interpolation-filters:linearRGB;solid-color:#000000;solid-opacity:1;vector-effect:none;fill:#2c8556;fill-opacity:1;fill-rule:nonzero;stroke:none;stroke-width:0.16991407;stroke-linecap:butt;stroke-linejoin:round;stroke-miterlimit:4;stroke-dasharray:none;stroke-dashoffset:0;stroke-opacity:1;color-rendering:auto;image-rendering:auto;shape-rendering:auto;text-rendering:auto;enable-background:accumulate"
         inkscape:connector-curvature="0" />
      <path
         sodipodi:nodetypes="ccccccccccc"
         inkscape:connector-curvature="0"
         style="color:#000000;font-style:normal;font-variant:normal;font-weight:normal;font-stretch:normal;font-size:medium;line-height:normal;font-family:sans-serif;font-variant-ligatures:normal;font-variant-position:normal;font-variant-caps:normal;font-variant-numeric:normal;font-variant-alternates:normal;font-feature-settings:normal;text-indent:0;text-align:start;text-decoration:none;text-decoration-line:none;text-decoration-style:solid;text-decoration-color:#000000;letter-spacing:normal;word-spacing:normal;text-transform:none;writing-mode:lr-tb;direction:ltr;text-orientation:mixed;dominant-baseline:auto;baseline-shift:baseline;text-anchor:start;white-space:normal;shape-padding:0;clip-rule:nonzero;display:inline;overflow:visible;visibility:visible;opacity:1;isolation:auto;mix-blend-mode:normal;color-interpolation:sRGB;color-interpolation-filters:linearRGB;solid-color:#000000;solid-opacity:1;vector-effect:none;fill:#060529;fill-opacity:1;fill-rule:nonzero;stroke:none;stroke-width:0.16991407;stroke-linecap:butt;stroke-linejoin:round;stroke-miterlimit:4;stroke-dasharray:none;stroke-dashoffset:0;stroke-opacity:1;color-rendering:auto;image-rendering:auto;shape-rendering:auto;text-rendering:auto;enable-background:accumulate"
         d="m 13.044375,292.99456 h 3.343433 v -0.78351 h -2.896693 v -2.52621 c 0.779779,-0.0623 1.5489,-0.29363 2.249042,-0.69786 1.655224,-0.95565 2.674626,-2.72265 2.674626,-4.63394 h -0.921551 c 0,1.58342 -0.84394,3.044 -2.215214,3.83571 -0.691297,0.39912 -1.46282,0.59702 -2.233643,0.59373 z"
         id="path4672" />
      <circle
         r="0.36052626"
         cy="278.31345"
         cx="11.586723"
         id="path4714"
         style="color:#000000;clip-rule:nonzero;display:inline;overflow:visible;visibility:visible;opacity:1;isolation:auto;mix-blend-mode:normal;color-interpolation:sRGB;color-interpolation-filters:linearRGB;solid-color:#000000;solid-opacity:1;fill:#060529;fill-opacity:1;fill-rule:nonzero;stroke:none;stroke-width:0.16476516;stroke-linecap:butt;stroke-linejoin:round;stroke-miterlimit:4;stroke-dasharray:none;stroke-dashoffset:0;stroke-opacity:1;color-rendering:auto;image-rendering:auto;shape-rendering:auto;text-rendering:auto;enable-background:accumulate" />
      <use
         style="stroke-width:0.18431292"
         height="100%"
         width="100%"
         transform="translate(0,1.4568759)"
         id="use4716"
         xlink:href="#path4714"
         y="0"
         x="0" />
      <use
         style="stroke-width:0.18431292"
         height="100%"
         width="100%"
         transform="translate(0,1.4568758)"
         id="use4718"
         xlink:href="#use4716"
         y="0"
         x="0" />
      <use
         style="stroke-width:0.18431292"
         height="100%"
         width="100%"
         transform="translate(0,1.4568759)"
         id="use4720"
         xlink:href="#use4718"
         y="0"
         x="0" />
      <use
         style="stroke-width:0.18431292"
         height="100%"
         width="100%"
         transform="translate(0,1.4568767)"
         id="use4722"
         xlink:href="#use4720"
         y="0"
         x="0" />
      <use
         style="stroke-width:0.18431292"
         transform="translate(1.4647778)"
         id="use4730"
         xlink:href="#path4714"
         y="0"
         x="0"
         width="100%"
         height="100%" />
      <use
         style="stroke-width:0.18431292"
         transform="translate(1.4647778)"
         id="use4732"
         xlink:href="#use4716"
         y="0"
         x="0"
         width="100%"
         height="100%" />
      <use
         style="stroke-width:0.18431292"
         transform="translate(1.4647778)"
         id="use4734"
         xlink:href="#use4718"
         y="0"
         x="0"
         width="100%"
         height="100%" />
      <use
         style="stroke-width:0.18431292"
         transform="translate(1.4647778)"
         id="use4736"
         xlink:href="#use4720"
         y="0"
         x="0"
         width="100%"
         height="100%" />
      <use
         style="stroke-width:0.18431292"
         transform="translate(1.4647778)"
         id="use4738"
         xlink:href="#use4722"
         y="0"
         x="0"
         width="100%"
         height="100%" />
      <use
         style="stroke-width:0.18431292"
         height="100%"
         width="100%"
         transform="translate(1.4647779)"
         id="use4740"
         xlink:href="#use4730"
         y="0"
         x="0" />
      <use
         style="stroke-width:0.18431292"
         height="100%"
         width="100%"
         transform="translate(1.4647779)"
         id="use4742"
         xlink:href="#use4732"
         y="0"
         x="0" />
      <use
         style="stroke-width:0.18431292"
         height="100%"
         width="100%"
         transform="translate(1.4647779)"
         id="use4744"
         xlink:href="#use4734"
         y="0"
         x="0" />
      <use
         style="stroke-width:0.18431292"
         height="100%"
         width="100%"
         transform="translate(1.4647779)"
         id="use4746"
         xlink:href="#use4736"
         y="0"
         x="0" />
      <use
         style="stroke-width:0.18431292"
         height="100%"
         width="100%"
         transform="translate(1.4647779)"
         id="use4748"
         xlink:href="#use4738"
         y="0"
         x="0" />
    </g>
  </g>
</svg>
